EESchema Schematic File Version 4
LIBS:gowandv2-cache
EELAYER 26 0
EELAYER END
$Descr A4 11693 8268
encoding utf-8
Sheet 1 1
Title ""
Date ""
Rev ""
Comp ""
Comment1 ""
Comment2 ""
Comment3 ""
Comment4 ""
$EndDescr
$Comp
L power:+3.3V #PWR018
U 1 1 5B84D696
P 5050 6750
F 0 "#PWR018" H 5050 6600 50  0001 C CNN
F 1 "+3.3V" H 5065 6923 50  0000 C CNN
F 2 "" H 5050 6750 50  0001 C CNN
F 3 "" H 5050 6750 50  0001 C CNN
	1    5050 6750
	1    0    0    -1  
$EndComp
$Comp
L Device:R_US R14
U 1 1 5B84EB46
P 6800 3150
F 0 "R14" H 6868 3196 50  0000 L CNN
F 1 "10K(1%)" H 6868 3105 50  0000 L CNN
F 2 "Resistor_SMD:R_0805_2012Metric_Pad1.15x1.40mm_HandSolder" V 6840 3140 50  0001 C CNN
F 3 "~" H 6800 3150 50  0001 C CNN
	1    6800 3150
	1    0    0    -1  
$EndComp
Wire Notes Line
	11000 600  11000 4200
Wire Notes Line
	11000 4200 6150 4200
Wire Notes Line
	6150 4200 6150 600 
Wire Notes Line
	6150 600  11000 600 
$Comp
L Device:C C11
U 1 1 5B84F3E7
P 6800 3550
F 0 "C11" H 6915 3596 50  0000 L CNN
F 1 "1nF/50V(10%)" H 6915 3505 50  0000 L CNN
F 2 "Capacitor_SMD:C_0805_2012Metric_Pad1.15x1.40mm_HandSolder" H 6838 3400 50  0001 C CNN
F 3 "http://thegioiic.com/products/tu-1nf-50v-0805" H 6800 3550 50  0001 C CNN
	1    6800 3550
	1    0    0    -1  
$EndComp
Wire Wire Line
	7200 2350 6800 2350
$Comp
L power:+3.3V #PWR023
U 1 1 5B850B27
P 6800 1450
F 0 "#PWR023" H 6800 1300 50  0001 C CNN
F 1 "+3.3V" H 6815 1623 50  0000 C CNN
F 2 "" H 6800 1450 50  0001 C CNN
F 3 "" H 6800 1450 50  0001 C CNN
	1    6800 1450
	1    0    0    -1  
$EndComp
$Comp
L power:+3.3V #PWR025
U 1 1 5B850B5D
P 6800 3000
F 0 "#PWR025" H 6800 2850 50  0001 C CNN
F 1 "+3.3V" H 6815 3173 50  0000 C CNN
F 2 "" H 6800 3000 50  0001 C CNN
F 3 "" H 6800 3000 50  0001 C CNN
	1    6800 3000
	1    0    0    -1  
$EndComp
$Comp
L power:Earth #PWR024
U 1 1 5B85152D
P 6800 2550
F 0 "#PWR024" H 6800 2300 50  0001 C CNN
F 1 "Earth" H 6800 2400 50  0001 C CNN
F 2 "" H 6800 2550 50  0001 C CNN
F 3 "~" H 6800 2550 50  0001 C CNN
	1    6800 2550
	1    0    0    -1  
$EndComp
$Comp
L power:Earth #PWR026
U 1 1 5B851553
P 6800 3850
F 0 "#PWR026" H 6800 3600 50  0001 C CNN
F 1 "Earth" H 6800 3700 50  0001 C CNN
F 2 "" H 6800 3850 50  0001 C CNN
F 3 "~" H 6800 3850 50  0001 C CNN
	1    6800 3850
	1    0    0    -1  
$EndComp
Wire Wire Line
	6800 2350 6800 2550
Wire Wire Line
	6800 3300 6800 3350
$Comp
L power:Earth #PWR031
U 1 1 5B853026
P 8650 3850
F 0 "#PWR031" H 8650 3600 50  0001 C CNN
F 1 "Earth" H 8650 3700 50  0001 C CNN
F 2 "" H 8650 3850 50  0001 C CNN
F 3 "~" H 8650 3850 50  0001 C CNN
	1    8650 3850
	1    0    0    -1  
$EndComp
Wire Wire Line
	8650 3350 8050 3350
Wire Wire Line
	8050 3350 8050 2900
Wire Wire Line
	8650 3250 8650 3350
Connection ~ 8650 3350
Text GLabel 8150 2800 0    50   Input ~ 0
IO12
Text Notes 6200 750  0    79   ~ 16
CORE
$Comp
L power:+3.3V #PWR035
U 1 1 5B858C2D
P 10850 4800
F 0 "#PWR035" H 10850 4650 50  0001 C CNN
F 1 "+3.3V" H 10865 4973 50  0000 C CNN
F 2 "" H 10850 4800 50  0001 C CNN
F 3 "" H 10850 4800 50  0001 C CNN
	1    10850 4800
	1    0    0    -1  
$EndComp
$Comp
L power:Earth #PWR036
U 1 1 5B85A42E
P 10850 6000
F 0 "#PWR036" H 10850 5750 50  0001 C CNN
F 1 "Earth" H 10850 5850 50  0001 C CNN
F 2 "" H 10850 6000 50  0001 C CNN
F 3 "~" H 10850 6000 50  0001 C CNN
	1    10850 6000
	1    0    0    -1  
$EndComp
$Comp
L power:Earth #PWR032
U 1 1 5B85A455
P 8900 5950
F 0 "#PWR032" H 8900 5700 50  0001 C CNN
F 1 "Earth" H 8900 5800 50  0001 C CNN
F 2 "" H 8900 5950 50  0001 C CNN
F 3 "~" H 8900 5950 50  0001 C CNN
	1    8900 5950
	1    0    0    -1  
$EndComp
Wire Notes Line
	11000 4400 11000 6200
Text Notes 5450 4100 0    79   ~ 16
POWER\n
Wire Wire Line
	8650 3350 8650 3850
Wire Notes Line
	6500 7700 6500 6550
Text GLabel 9450 3250 3    50   Input ~ 0
RF_CS
Text GLabel 10000 2150 2    50   Input ~ 0
RF_CLK
Text GLabel 10000 1450 2    50   Input ~ 0
RF_MOSI
Text GLabel 10000 2050 2    50   Input ~ 0
RF_MISO
Text GLabel 8150 2400 0    50   Input ~ 0
SPK
Text GLabel 10000 2650 2    50   Input ~ 0
BT_INT
Text GLabel 8150 2100 0    50   Input ~ 0
BATT_IO
Text GLabel 1050 5900 0    50   Input ~ 0
RF_CS
Text GLabel 1050 5600 0    50   Input ~ 0
RF_CLK
Text GLabel 1050 5800 0    50   Input ~ 0
RF_MOSI
Text GLabel 1050 5700 0    50   Input ~ 0
RF_MISO
Text GLabel 10000 2550 2    50   Input ~ 0
MPU_INT
Text GLabel 10400 1250 2    50   Input ~ 0
MPU_SCL
Text GLabel 2150 7100 2    50   Input ~ 0
RF_ON
Text GLabel 8150 2500 0    50   Input ~ 0
RF_ON
$Comp
L Device:Speaker LS2
U 1 1 5B9CE985
P 3900 7300
F 0 "LS2" H 4070 7296 50  0000 L CNN
F 1 "Speaker" H 4070 7205 50  0000 L CNN
F 2 "Connector_Hirose:Hirose_DF13-02P-1.25DS_1x02_P1.25mm_Horizontal" H 3900 7100 50  0001 C CNN
F 3 "https://thegioichip.com.vn/products/buzzer" H 3890 7250 50  0001 C CNN
	1    3900 7300
	1    0    0    1   
$EndComp
$Comp
L Device:R_US R8
U 1 1 5B9D8622
P 3650 7000
F 0 "R8" H 3718 7046 50  0000 L TNN
F 1 "330R" H 3718 6955 50  0000 C TNN
F 2 "Resistor_SMD:R_0805_2012Metric_Pad1.15x1.40mm_HandSolder" V 3690 6990 50  0001 C CNN
F 3 "~" H 3650 7000 50  0001 C CNN
	1    3650 7000
	1    0    0    1   
$EndComp
Text GLabel 3050 7350 3    50   Input ~ 0
SPK
Wire Wire Line
	3600 7300 3650 7300
Text Notes 3250 6700 0    79   ~ 16
INDICATOR
Text Notes 1900 6650 0    79   ~ 16
RFID PW
$Comp
L Switch:SW_Push SW1
U 1 1 5BA088CB
P 3450 3500
F 0 "SW1" H 3550 3700 50  0000 R CNN
F 1 "BUTTON_IO0" H 3700 3450 50  0000 R CNN
F 2 "lib:Tact_Switch_TS6X3.6" H 3450 3700 50  0001 C CNN
F 3 "http://banlinhkien.vn/goods-1036-nut-nhan-2-chan-3x6x2-5mm-smd.html" H 3450 3700 50  0001 C CNN
	1    3450 3500
	1    0    0    -1  
$EndComp
$Comp
L power:Earth #PWR09
U 1 1 5BA2875D
P 3150 4050
F 0 "#PWR09" H 3150 3800 50  0001 C CNN
F 1 "Earth" H 3150 3900 50  0001 C CNN
F 2 "" H 3150 4050 50  0001 C CNN
F 3 "~" H 3150 4050 50  0001 C CNN
	1    3150 4050
	1    0    0    -1  
$EndComp
$Comp
L Device:R_US R11
U 1 1 5BA351BB
P 4400 3650
F 0 "R11" V 4300 3700 50  0000 R CNN
F 1 "10K(1%)" V 4500 3700 50  0000 R CNN
F 2 "Resistor_SMD:R_0805_2012Metric_Pad1.15x1.40mm_HandSolder" V 4440 3640 50  0001 C CNN
F 3 "~" H 4400 3650 50  0001 C CNN
	1    4400 3650
	1    0    0    -1  
$EndComp
$Comp
L Device:R_US R9
U 1 1 5BA3525B
P 4000 3850
F 0 "R9" V 3900 3800 50  0000 R CNN
F 1 "330R" V 3900 4050 50  0000 R CNN
F 2 "Resistor_SMD:R_0805_2012Metric_Pad1.15x1.40mm_HandSolder" V 4040 3840 50  0001 C CNN
F 3 "~" H 4000 3850 50  0001 C CNN
	1    4000 3850
	0    1    1    0   
$EndComp
$Comp
L Device:C C3
U 1 1 5BA352FF
P 3400 3850
F 0 "C3" V 3550 3800 50  0000 L CNN
F 1 "1nF/50V(10%)" V 3250 3600 50  0000 L CNN
F 2 "Capacitor_SMD:C_0805_2012Metric_Pad1.15x1.40mm_HandSolder" H 3438 3700 50  0001 C CNN
F 3 "http://thegioiic.com/products/tu-1nf-50v-0805" H 3400 3850 50  0001 C CNN
	1    3400 3850
	0    1    1    0   
$EndComp
Text GLabel 8050 3750 3    50   Input ~ 0
GND
Wire Wire Line
	8050 3750 8050 3350
Connection ~ 8050 3350
Text GLabel 10400 900  2    50   Input ~ 0
MPU_SDA
Wire Wire Line
	8150 2900 8050 2900
Text GLabel 10000 1750 2    50   Input ~ 0
RX0
Text GLabel 10000 1650 2    50   Input ~ 0
TX0
Text GLabel 8150 1700 0    50   Input ~ 0
EN
$Comp
L Device:R_US R18
U 1 1 5BB13A3F
P 8500 5700
F 0 "R18" V 8295 5700 50  0000 C CNN
F 1 "100K" V 8386 5700 50  0000 C CNN
F 2 "Resistor_SMD:R_0805_2012Metric_Pad1.15x1.40mm_HandSolder" V 8540 5690 50  0001 C CNN
F 3 "~" H 8500 5700 50  0001 C CNN
	1    8500 5700
	-1   0    0    1   
$EndComp
Text Notes 700  4600 0    79   ~ 16
CONNECTOR\n
Text Notes 750  750  0    79   ~ 16
MPU6050\n
Text GLabel 7300 3350 2    50   Input ~ 0
EN
Connection ~ 6800 3350
Wire Wire Line
	6800 3350 6800 3400
Text GLabel 2000 7600 2    50   Input ~ 0
RF_3.3V
Text GLabel 1050 6000 0    50   Input ~ 0
RF_3.3V
Wire Notes Line
	3200 7700 6500 7700
Wire Notes Line
	3200 6550 6500 6550
Wire Notes Line
	5950 4200 5950 3100
Wire Notes Line
	5950 600  5950 2950
Wire Notes Line
	600  600  600  2950
Text Notes 2850 3250 0    79   ~ 16
BUTTON\n
$Comp
L power:+3.3V #PWR015
U 1 1 5B8ACE26
P 4400 3450
F 0 "#PWR015" H 4400 3300 50  0001 C CNN
F 1 "+3.3V" H 4415 3623 50  0000 C CNN
F 2 "" H 4400 3450 50  0001 C CNN
F 3 "" H 4400 3450 50  0001 C CNN
	1    4400 3450
	1    0    0    -1  
$EndComp
$Comp
L Device:R_US R17
U 1 1 5B8D43FA
P 8050 5300
F 0 "R17" H 7950 5300 50  0000 C CNN
F 1 "1K" H 8200 5300 50  0000 C CNN
F 2 "Resistor_SMD:R_0805_2012Metric_Pad1.15x1.40mm_HandSolder" V 8090 5290 50  0001 C CNN
F 3 "~" H 8050 5300 50  0001 C CNN
	1    8050 5300
	-1   0    0    1   
$EndComp
$Comp
L Device:LED D3
U 1 1 5B8D4E3E
P 8050 5600
F 0 "D3" V 8050 5750 50  0000 R CNN
F 1 "LED_PW_R" V 7950 5700 50  0000 L CNN
F 2 "LED_SMD:LED_0805_2012Metric_Pad1.15x1.40mm_HandSolder" H 8050 5600 50  0001 C CNN
F 3 "https://icdayroi.com/led-smd-0805" H 8050 5600 50  0001 C CNN
	1    8050 5600
	0    -1   -1   0   
$EndComp
NoConn ~ 9050 3250
NoConn ~ 9150 3250
NoConn ~ 8850 3250
NoConn ~ 8150 2600
Text GLabel 4750 3850 2    50   Input ~ 0
BT_INT
Wire Notes Line
	2500 6200 600  6200
Text Notes 7450 7500 0    50   ~ 10
gostick-esp32-demo
Text Notes 10600 7650 0    50   ~ 0
0.1
Text Notes 8200 7650 0    50   ~ 0
31-08-2018\n
Text Notes 7050 6800 0    118  ~ 24
KODIMO
Text Notes 10400 7300 0    51   ~ 0
Author : D.Phuong
Wire Wire Line
	3150 3500 3150 3850
Wire Wire Line
	3250 3500 3150 3500
Wire Wire Line
	3250 3850 3150 3850
Connection ~ 3150 3850
Wire Wire Line
	3150 3850 3150 4050
Wire Wire Line
	3550 3850 3750 3850
Wire Wire Line
	3750 3850 3750 3500
Wire Wire Line
	3750 3500 3650 3500
Wire Wire Line
	3850 3850 3750 3850
Connection ~ 3750 3850
Wire Wire Line
	4400 3450 4400 3500
Wire Wire Line
	4400 3800 4400 3850
Connection ~ 4400 3850
Wire Wire Line
	4400 3850 4750 3850
Wire Notes Line
	600  600  5950 600 
Wire Notes Line
	600  2950 5950 2950
$Comp
L power:+BATT #PWR028
U 1 1 5B859BD5
P 7750 4950
F 0 "#PWR028" H 7750 4800 50  0001 C CNN
F 1 "+BATT" H 7765 5123 50  0000 C CNN
F 2 "" H 7750 4950 50  0001 C CNN
F 3 "" H 7750 4950 50  0001 C CNN
	1    7750 4950
	-1   0    0    -1  
$EndComp
Wire Wire Line
	7750 4950 7750 5000
Text GLabel 2700 1550 0    50   Input ~ 0
MPU_SDA
Text GLabel 2100 1650 0    50   Input ~ 0
MPU_SCL
Text GLabel 4200 1550 2    50   Input ~ 0
MPU_INT
Wire Wire Line
	8050 5000 8300 5000
NoConn ~ 8150 1900
Wire Wire Line
	8900 5000 8900 5550
$Comp
L Transistor_FET:IRLML6402 Q4
U 1 1 5B9A90C0
P 8500 5100
F 0 "Q4" V 8843 5100 50  0000 C CNN
F 1 "SI2301DS" V 8752 5100 50  0000 C CNN
F 2 "Package_TO_SOT_SMD:SOT-23" H 8700 5025 50  0001 L CIN
F 3 "https://icdayroi.com/si2301ds,S8050,B772 ,http://thegioiic.com/products/mmbt8550lt1g,https://banlinhkien.vn/goods-6032-mmbt2907-sot23-trans-pnp-0-6a-60v-2f-.html" H 8500 5100 50  0001 L CNN
	1    8500 5100
	0    -1   -1   0   
$EndComp
Wire Notes Line
	2800 6200 2800 4400
Wire Notes Line
	2800 6200 11000 6200
Wire Notes Line
	2800 4400 11000 4400
$Comp
L Device:R_US R20
U 1 1 5B9D1E6C
P 10000 3400
F 0 "R20" H 10068 3446 50  0000 L CNN
F 1 "10K(1%)" V 9850 3250 50  0000 L CNN
F 2 "Resistor_SMD:R_0805_2012Metric_Pad1.15x1.40mm_HandSolder" V 10040 3390 50  0001 C CNN
F 3 "~" H 10000 3400 50  0001 C CNN
	1    10000 3400
	0    1    1    0   
$EndComp
Wire Wire Line
	6800 3350 7300 3350
Wire Wire Line
	9550 3250 9550 3400
$Comp
L power:+3.3V #PWR033
U 1 1 5B9E3F08
P 10250 3200
F 0 "#PWR033" H 10250 3050 50  0001 C CNN
F 1 "+3.3V" H 10265 3373 50  0000 C CNN
F 2 "" H 10250 3200 50  0001 C CNN
F 3 "" H 10250 3200 50  0001 C CNN
	1    10250 3200
	1    0    0    -1  
$EndComp
Wire Wire Line
	10250 3200 10250 3400
Wire Wire Line
	10250 3400 10150 3400
$Comp
L Connector:Conn_01x02_Female J13
U 1 1 5B9F9AA4
P 9750 3600
F 0 "J13" V 9597 3648 50  0000 L CNN
F 1 "jump IO2" V 9850 3600 50  0000 L CNN
F 2 "Jumper:SolderJumper-2_P1.3mm_Open_RoundedPad1.0x1.5mm" H 9750 3600 50  0001 C CNN
F 3 "x" H 9750 3600 50  0001 C CNN
	1    9750 3600
	0    1    1    0   
$EndComp
Wire Wire Line
	9650 3400 9550 3400
Wire Wire Line
	9750 3400 9850 3400
Wire Wire Line
	6800 3750 6800 3850
Wire Wire Line
	6800 3700 6800 3750
Connection ~ 6800 3750
Wire Wire Line
	6400 3750 6800 3750
Wire Wire Line
	6400 3350 6800 3350
$Comp
L Switch:SW_Push SW3
U 1 1 5B9CC0B2
P 6400 3550
F 0 "SW3" H 6500 3750 50  0000 R CNN
F 1 "RST" H 6650 3500 50  0000 R CNN
F 2 "lib:Tact_Switch_TS6X3.6" H 6400 3750 50  0001 C CNN
F 3 "http://banlinhkien.vn/goods-1036-nut-nhan-2-chan-3x6x2-5mm-smd.html" H 6400 3750 50  0001 C CNN
	1    6400 3550
	0    1    1    0   
$EndComp
Wire Wire Line
	8050 5150 8050 5000
$Comp
L power:Earth #PWR029
U 1 1 5BA12F61
P 8050 5850
F 0 "#PWR029" H 8050 5600 50  0001 C CNN
F 1 "Earth" H 8050 5700 50  0001 C CNN
F 2 "" H 8050 5850 50  0001 C CNN
F 3 "~" H 8050 5850 50  0001 C CNN
	1    8050 5850
	1    0    0    -1  
$EndComp
Wire Wire Line
	8050 5850 8050 5750
Wire Wire Line
	10850 5700 10850 6000
Text GLabel 10000 2850 2    50   Input ~ 0
GND
$Comp
L power:+3.3V #PWR05
U 1 1 5B986C9A
P 1650 6700
F 0 "#PWR05" H 1650 6550 50  0001 C CNN
F 1 "+3.3V" H 1665 6873 50  0000 C CNN
F 2 "" H 1650 6700 50  0001 C CNN
F 3 "" H 1650 6700 50  0001 C CNN
	1    1650 6700
	1    0    0    -1  
$EndComp
NoConn ~ 9250 3250
NoConn ~ 9350 3250
NoConn ~ 8950 3250
NoConn ~ 10000 1950
Text GLabel 10000 1850 2    47   Input ~ 0
SDA
Text GLabel 10000 1550 2    47   Input ~ 0
SCL
Text GLabel 10200 850  0    47   Input ~ 0
SDA
Text GLabel 10200 1200 0    47   Input ~ 0
SCL
Wire Wire Line
	10200 850  10300 850 
Wire Wire Line
	10400 900  10300 900 
Wire Wire Line
	10300 900  10300 850 
Wire Wire Line
	10200 1200 10300 1200
Wire Wire Line
	10300 1200 10300 1250
Wire Wire Line
	10300 1250 10400 1250
Text GLabel 9550 3900 2    47   Input ~ 0
NRF_INT
$Comp
L Device:R_US R15
U 1 1 5BBEC9D7
P 7400 5250
F 0 "R15" H 7300 5250 50  0000 C CNN
F 1 "100K" H 7550 5250 50  0000 C CNN
F 2 "Resistor_SMD:R_0805_2012Metric_Pad1.15x1.40mm_HandSolder" V 7440 5240 50  0001 C CNN
F 3 "~" H 7400 5250 50  0001 C CNN
	1    7400 5250
	-1   0    0    1   
$EndComp
$Comp
L Device:R_US R16
U 1 1 5BBECA55
P 7400 5700
F 0 "R16" H 7300 5700 50  0000 C CNN
F 1 "100K" H 7550 5700 50  0000 C CNN
F 2 "Resistor_SMD:R_0805_2012Metric_Pad1.15x1.40mm_HandSolder" V 7440 5690 50  0001 C CNN
F 3 "~" H 7400 5700 50  0001 C CNN
	1    7400 5700
	-1   0    0    1   
$EndComp
$Comp
L power:Earth #PWR027
U 1 1 5BBECACB
P 7400 5850
F 0 "#PWR027" H 7400 5600 50  0001 C CNN
F 1 "Earth" H 7400 5700 50  0001 C CNN
F 2 "" H 7400 5850 50  0001 C CNN
F 3 "~" H 7400 5850 50  0001 C CNN
	1    7400 5850
	1    0    0    -1  
$EndComp
Wire Wire Line
	7550 5500 7400 5500
Connection ~ 7400 5500
Wire Wire Line
	7400 5500 7400 5550
Text GLabel 7550 5500 2    50   Input ~ 0
BATT_IO
$Comp
L gowandv2-rescue:AP2112K-3.3TRG1-AP2112K-3.3TRG1 U4
U 1 1 5BC15CB4
P 10100 5200
F 0 "U4" H 10100 5451 39  0000 C CNN
F 1 "AP2112K-sot25" H 10100 5376 39  0000 C CNN
F 2 "AP2112K-3.3TRG1:SOT95P285X140-5N" H 10100 5200 39  0001 C CNN
F 3 "" H 10100 5200 39  0001 C CNN
	1    10100 5200
	1    0    0    -1  
$EndComp
$Comp
L power:Earth #PWR034
U 1 1 5BC16ADB
P 10600 5550
F 0 "#PWR034" H 10600 5300 50  0001 C CNN
F 1 "Earth" H 10600 5400 50  0001 C CNN
F 2 "" H 10600 5550 50  0001 C CNN
F 3 "~" H 10600 5550 50  0001 C CNN
	1    10600 5550
	1    0    0    -1  
$EndComp
$Comp
L Device:R_US R19
U 1 1 5BC1726D
P 9300 5200
F 0 "R19" V 9095 5200 50  0000 C CNN
F 1 "100K" V 9186 5200 50  0000 C CNN
F 2 "Resistor_SMD:R_0805_2012Metric_Pad1.15x1.40mm_HandSolder" V 9340 5190 50  0001 C CNN
F 3 "~" H 9300 5200 50  0001 C CNN
	1    9300 5200
	0    -1   -1   0   
$EndComp
Wire Wire Line
	9450 5200 9600 5200
Wire Wire Line
	9150 5200 9100 5200
Wire Wire Line
	9100 5200 9100 5000
Connection ~ 9100 5000
Wire Wire Line
	9100 5000 9600 5000
Wire Wire Line
	3600 7200 3650 7200
$Comp
L Device:C C13
U 1 1 5BC5553F
P 8900 5700
F 0 "C13" H 9015 5746 50  0000 L CNN
F 1 "1uF/10V(10%)" H 9015 5655 50  0000 L CNN
F 2 "Capacitor_SMD:C_0805_2012Metric_Pad1.15x1.40mm_HandSolder" H 8938 5550 50  0001 C CNN
F 3 "~" H 8900 5700 50  0001 C CNN
	1    8900 5700
	1    0    0    -1  
$EndComp
Wire Wire Line
	7200 2200 7200 2350
$Comp
L Device:C C12
U 1 1 5BC5D3FE
P 7200 2050
F 0 "C12" H 7315 2096 50  0000 L CNN
F 1 "1uF/6.3V(10%)" H 7315 2005 50  0000 L CNN
F 2 "Capacitor_SMD:C_0805_2012Metric_Pad1.15x1.40mm_HandSolder" H 7238 1900 50  0001 C CNN
F 3 "~" H 7200 2050 50  0001 C CNN
	1    7200 2050
	1    0    0    -1  
$EndComp
$Comp
L Device:CP C10
U 1 1 5BC5DC70
P 6800 2200
F 0 "C10" H 6918 2246 50  0000 L CNN
F 1 "100uF/6.3V(20%)" H 6918 2155 50  0000 L CNN
F 2 "Capacitor_SMD:C_1210_3225Metric" H 6838 2050 50  0001 C CNN
F 3 "http://banlinhkien.vn/goods-7471-tu-tantalum-105v-1uf-35v-smd3216.html,https://htpro.vn/tu-tantalum/tu-tantalum-1uf16v-a.html" H 6800 2200 50  0001 C CNN
	1    6800 2200
	1    0    0    -1  
$EndComp
Connection ~ 6800 2350
$Comp
L Device:C C14
U 1 1 5BC608AF
P 10850 5550
F 0 "C14" H 10965 5596 50  0000 L CNN
F 1 "2.2uF/16V" H 10965 5505 50  0000 L CNN
F 2 "Capacitor_SMD:C_0805_2012Metric_Pad1.15x1.40mm_HandSolder" H 10888 5400 50  0001 C CNN
F 3 "~" H 10850 5550 50  0001 C CNN
	1    10850 5550
	1    0    0    -1  
$EndComp
$Comp
L Connector_Generic:Conn_01x06 J5
U 1 1 5BC6586A
P 1250 5800
F 0 "J5" H 1329 5842 50  0000 L CNN
F 1 "Conn_RFID_SPI" H 1329 5751 50  0000 L CNN
F 2 "Connector_Hirose:Hirose_DF13C_CL535-0406-3-51_1x06-1MP_P1.25mm_Vertical" H 1250 5800 50  0001 C CNN
F 3 "~" H 1250 5800 50  0001 C CNN
	1    1250 5800
	1    0    0    -1  
$EndComp
Text Notes 1100 6450 0    39   ~ 0
fix cho nay dung si2001 OK, G noi voi GPIO, S noi voi 3.3V, D output 100k
$Comp
L Transistor_FET:IRLML6402 Q2
U 1 1 5BFFAE24
P 1750 7100
F 0 "Q2" H 1650 7200 50  0000 C CNN
F 1 "SI2301DS" H 1600 7300 50  0000 C CNN
F 2 "Package_TO_SOT_SMD:SOT-23" H 1950 7025 50  0001 L CIN
F 3 "https://icdayroi.com/si2301ds,S8050,B772 ,http://thegioiic.com/products/mmbt8550lt1g,https://banlinhkien.vn/goods-6032-mmbt2907-sot23-trans-pnp-0-6a-60v-2f-.html" H 1750 7100 50  0001 L CNN
	1    1750 7100
	-1   0    0    1   
$EndComp
Wire Wire Line
	8900 5000 9100 5000
$Comp
L gowandv2-rescue:MPU-6050-Sensor_Motion U1
U 1 1 5C05E4FC
P 3500 1850
F 0 "U1" H 3500 2728 50  0000 C CNN
F 1 "MPU-6050" H 3500 2637 50  0000 C CNN
F 2 "lib:QFN-24-1EP_4x4mm_P0.5mm_EP2.7x2.6mm" H 3500 1050 50  0001 C CNN
F 3 "https://store.invensense.com/datasheets/invensense/MPU-6050_DataSheet_V3%204.pdf" H 3500 1700 50  0001 C CNN
	1    3500 1850
	1    0    0    -1  
$EndComp
$Comp
L power:+3.3V #PWR010
U 1 1 5C063DEC
P 3500 850
F 0 "#PWR010" H 3500 700 50  0001 C CNN
F 1 "+3.3V" H 3515 1023 50  0000 C CNN
F 2 "" H 3500 850 50  0001 C CNN
F 3 "" H 3500 850 50  0001 C CNN
	1    3500 850 
	1    0    0    -1  
$EndComp
Wire Wire Line
	3500 1150 3500 1100
Wire Wire Line
	2700 1550 2750 1550
Wire Wire Line
	2100 1650 2150 1650
$Comp
L Device:R_US R7
U 1 1 5C08D19C
P 2750 1150
F 0 "R7" V 2650 1200 50  0000 R CNN
F 1 "4.7K" V 2850 1200 50  0000 R CNN
F 2 "Resistor_SMD:R_0805_2012Metric_Pad1.15x1.40mm_HandSolder" V 2790 1140 50  0001 C CNN
F 3 "~" H 2750 1150 50  0001 C CNN
	1    2750 1150
	1    0    0    -1  
$EndComp
$Comp
L Device:R_US R4
U 1 1 5C08D31A
P 2150 1150
F 0 "R4" V 2050 1200 50  0000 R CNN
F 1 "4.7K" V 2250 1200 50  0000 R CNN
F 2 "Resistor_SMD:R_0805_2012Metric_Pad1.15x1.40mm_HandSolder" V 2190 1140 50  0001 C CNN
F 3 "~" H 2150 1150 50  0001 C CNN
	1    2150 1150
	1    0    0    -1  
$EndComp
Wire Wire Line
	2150 1300 2150 1650
Connection ~ 2150 1650
Wire Wire Line
	2150 1650 2800 1650
Wire Wire Line
	2750 1300 2750 1550
Connection ~ 2750 1550
Wire Wire Line
	2750 1550 2800 1550
Wire Wire Line
	2150 1000 2450 1000
Wire Wire Line
	3500 900  2450 900 
Wire Wire Line
	2450 900  2450 1000
Connection ~ 3500 900 
Wire Wire Line
	3500 900  3500 850 
Connection ~ 2450 1000
Wire Wire Line
	2450 1000 2750 1000
$Comp
L Device:C C7
U 1 1 5C0A0DB8
P 4400 2050
F 0 "C7" V 4350 2150 50  0000 L CNN
F 1 "2200pF" V 4250 1800 50  0000 L CNN
F 2 "Capacitor_SMD:C_0805_2012Metric_Pad1.15x1.40mm_HandSolder" H 4438 1900 50  0001 C CNN
F 3 "http://thegioiic.com/products/tu-1nf-50v-0805" H 4400 2050 50  0001 C CNN
	1    4400 2050
	0    1    1    0   
$EndComp
Wire Wire Line
	4250 2050 4200 2050
$Comp
L Device:C C5
U 1 1 5C0A6537
P 4000 1100
F 0 "C5" V 4150 1050 50  0000 L CNN
F 1 "0.1uF" V 3850 850 50  0000 L CNN
F 2 "Capacitor_SMD:C_0805_2012Metric_Pad1.15x1.40mm_HandSolder" H 4038 950 50  0001 C CNN
F 3 "http://thegioiic.com/products/tu-1nf-50v-0805" H 4000 1100 50  0001 C CNN
	1    4000 1100
	0    1    1    0   
$EndComp
Wire Wire Line
	3850 1100 3500 1100
Connection ~ 3500 1100
Wire Wire Line
	3500 1100 3500 900 
$Comp
L power:Earth #PWR017
U 1 1 5C0AC140
P 4600 2700
F 0 "#PWR017" H 4600 2450 50  0001 C CNN
F 1 "Earth" H 4600 2550 50  0001 C CNN
F 2 "" H 4600 2700 50  0001 C CNN
F 3 "~" H 4600 2700 50  0001 C CNN
	1    4600 2700
	1    0    0    -1  
$EndComp
$Comp
L power:Earth #PWR016
U 1 1 5C0AC321
P 4600 1250
F 0 "#PWR016" H 4600 1000 50  0001 C CNN
F 1 "Earth" H 4600 1100 50  0001 C CNN
F 2 "" H 4600 1250 50  0001 C CNN
F 3 "~" H 4600 1250 50  0001 C CNN
	1    4600 1250
	1    0    0    -1  
$EndComp
Wire Wire Line
	4150 1100 4600 1100
Wire Wire Line
	4600 1100 4600 1250
Wire Wire Line
	4550 2050 4600 2050
Wire Wire Line
	3500 2550 4250 2550
Wire Wire Line
	4600 2550 4600 2700
Wire Wire Line
	4600 2050 4600 2550
Connection ~ 4600 2550
$Comp
L Device:C C6
U 1 1 5C0C4102
P 4250 2300
F 0 "C6" V 4400 2250 50  0000 L CNN
F 1 "0.1uF" H 4050 2400 50  0000 L CNN
F 2 "Capacitor_SMD:C_0805_2012Metric_Pad1.15x1.40mm_HandSolder" H 4288 2150 50  0001 C CNN
F 3 "http://thegioiic.com/products/tu-1nf-50v-0805" H 4250 2300 50  0001 C CNN
	1    4250 2300
	-1   0    0    1   
$EndComp
$Comp
L Device:C C2
U 1 1 5C0D7438
P 2550 2300
F 0 "C2" V 2700 2250 50  0000 L CNN
F 1 "0.01uF" H 2300 2400 50  0000 L CNN
F 2 "Capacitor_SMD:C_0805_2012Metric_Pad1.15x1.40mm_HandSolder" H 2588 2150 50  0001 C CNN
F 3 "http://thegioiic.com/products/tu-1nf-50v-0805" H 2550 2300 50  0001 C CNN
	1    2550 2300
	-1   0    0    1   
$EndComp
Wire Wire Line
	2800 2050 2550 2050
Wire Wire Line
	2800 2150 2550 2150
Wire Wire Line
	2550 2050 2550 2100
Connection ~ 2550 2150
Wire Wire Line
	2250 2100 2550 2100
Connection ~ 2550 2100
Wire Wire Line
	2550 2100 2550 2150
$Comp
L power:Earth #PWR07
U 1 1 5C106402
P 2250 2150
F 0 "#PWR07" H 2250 1900 50  0001 C CNN
F 1 "Earth" H 2250 2000 50  0001 C CNN
F 2 "" H 2250 2150 50  0001 C CNN
F 3 "~" H 2250 2150 50  0001 C CNN
	1    2250 2150
	1    0    0    -1  
$EndComp
Wire Wire Line
	2250 2150 2250 2100
NoConn ~ 4200 1750
NoConn ~ 4200 1850
Wire Wire Line
	1950 1750 2800 1750
Wire Wire Line
	1850 1750 1600 1750
Wire Wire Line
	1600 1750 1600 900 
Wire Wire Line
	1600 900  2450 900 
Connection ~ 2450 900 
Text GLabel 8150 2200 0    50   Input ~ 0
RESET_FACTORY
Text GLabel 8150 2300 0    50   Input ~ 0
TOUCH
Wire Wire Line
	8500 5900 8500 5850
NoConn ~ 8150 1800
Text GLabel 6250 7100 2    50   Input ~ 0
IO12
$Comp
L Device:C C9
U 1 1 5C1D4D5E
P 6050 7400
F 0 "C9" V 6165 7446 50  0000 L CNN
F 1 "1uF/10V(10%)" V 6250 7250 50  0000 L CNN
F 2 "Capacitor_SMD:C_0805_2012Metric_Pad1.15x1.40mm_HandSolder" H 6088 7250 50  0001 C CNN
F 3 "~" H 6050 7400 50  0001 C CNN
	1    6050 7400
	0    1    1    0   
$EndComp
Wire Wire Line
	5950 7100 6250 7100
$Comp
L LED:WS2812B D2
U 1 1 5C1ED805
P 5650 7100
F 0 "D2" H 5309 7054 50  0000 R CNN
F 1 "WS2812B" H 5309 7145 50  0000 R CNN
F 2 "lib:LED_WS2812B_PLCC4_5.0x5.0mm_P3.2mm_pi" H 5700 6800 50  0001 L TNN
F 3 "https://cdn-shop.adafruit.com/datasheets/WS2812B.pdf" H 5750 6725 50  0001 L TNN
	1    5650 7100
	-1   0    0    1   
$EndComp
Wire Wire Line
	5050 7400 5650 7400
Wire Wire Line
	5900 7400 5650 7400
Connection ~ 5650 7400
$Comp
L power:Earth #PWR019
U 1 1 5C20857F
P 6000 6650
F 0 "#PWR019" H 6000 6400 50  0001 C CNN
F 1 "Earth" H 6000 6500 50  0001 C CNN
F 2 "" H 6000 6650 50  0001 C CNN
F 3 "~" H 6000 6650 50  0001 C CNN
	1    6000 6650
	1    0    0    -1  
$EndComp
Wire Wire Line
	5650 6800 5650 6650
$Comp
L power:Earth #PWR011
U 1 1 5C217E88
P 3650 7450
F 0 "#PWR011" H 3650 7200 50  0001 C CNN
F 1 "Earth" H 3650 7300 50  0001 C CNN
F 2 "" H 3650 7450 50  0001 C CNN
F 3 "~" H 3650 7450 50  0001 C CNN
	1    3650 7450
	1    0    0    -1  
$EndComp
Text GLabel 2100 3850 2    50   Input ~ 0
TOUCH
Wire Notes Line
	600  3100 600  4200
Wire Notes Line
	600  4200 5950 4200
Wire Notes Line
	600  3100 5950 3100
Wire Notes Line
	2500 6200 2500 4400
Wire Notes Line
	2500 4400 600  4400
Wire Notes Line
	600  4400 600  6200
Wire Wire Line
	4150 3850 4400 3850
$Comp
L Connector_Generic:Conn_01x03 J6
U 1 1 5C0B52F1
P 1650 3500
F 0 "J6" H 1730 3542 50  0000 L CNN
F 1 "TOUCh" H 1730 3451 50  0000 L CNN
F 2 "Connector_Hirose:Hirose_DF13C_CL535-0403-5-51_1x03-1MP_P1.25mm_Vertical" H 1650 3500 50  0001 C CNN
F 3 "~" H 1650 3500 50  0001 C CNN
	1    1650 3500
	0    -1   -1   0   
$EndComp
$Comp
L power:Earth #PWR02
U 1 1 5C0B59BE
P 850 3900
F 0 "#PWR02" H 850 3650 50  0001 C CNN
F 1 "Earth" H 850 3750 50  0001 C CNN
F 2 "" H 850 3900 50  0001 C CNN
F 3 "~" H 850 3900 50  0001 C CNN
	1    850  3900
	1    0    0    -1  
$EndComp
Wire Wire Line
	1350 3850 1550 3850
Wire Wire Line
	1550 3850 1550 3700
$Comp
L power:+3.3V #PWR08
U 1 1 5C0BD0CF
P 2500 3350
F 0 "#PWR08" H 2500 3200 50  0001 C CNN
F 1 "+3.3V" H 2515 3523 50  0000 C CNN
F 2 "" H 2500 3350 50  0001 C CNN
F 3 "" H 2500 3350 50  0001 C CNN
	1    2500 3350
	1    0    0    -1  
$EndComp
Text GLabel 1350 2400 0    50   Input ~ 0
MPU_SDA
Text GLabel 1350 2300 0    50   Input ~ 0
MPU_SCL
Text GLabel 1350 2800 0    50   Input ~ 0
MPU_INT
$Comp
L power:+3.3V #PWR04
U 1 1 5C0DB1C9
P 1250 2100
F 0 "#PWR04" H 1250 1950 50  0001 C CNN
F 1 "+3.3V" H 1265 2273 50  0000 C CNN
F 2 "" H 1250 2100 50  0001 C CNN
F 3 "" H 1250 2100 50  0001 C CNN
	1    1250 2100
	1    0    0    -1  
$EndComp
$Comp
L power:Earth #PWR03
U 1 1 5C0DB1D0
P 1100 2200
F 0 "#PWR03" H 1100 1950 50  0001 C CNN
F 1 "Earth" H 1100 2050 50  0001 C CNN
F 2 "" H 1100 2200 50  0001 C CNN
F 3 "~" H 1100 2200 50  0001 C CNN
	1    1100 2200
	-1   0    0    1   
$EndComp
$Comp
L power:Earth #PWR022
U 1 1 5C09B1B2
P 6300 7400
F 0 "#PWR022" H 6300 7150 50  0001 C CNN
F 1 "Earth" H 6300 7250 50  0001 C CNN
F 2 "" H 6300 7400 50  0001 C CNN
F 3 "~" H 6300 7400 50  0001 C CNN
	1    6300 7400
	1    0    0    -1  
$EndComp
Wire Wire Line
	6200 7400 6300 7400
$Comp
L power:+3.3V #PWR030
U 1 1 5C0A96C3
P 8250 5950
F 0 "#PWR030" H 8250 5800 50  0001 C CNN
F 1 "+3.3V" H 8265 6123 50  0000 C CNN
F 2 "" H 8250 5950 50  0001 C CNN
F 3 "" H 8250 5950 50  0001 C CNN
	1    8250 5950
	1    0    0    -1  
$EndComp
Wire Wire Line
	5650 6650 6000 6650
Wire Wire Line
	7400 5400 7400 5500
Connection ~ 8050 5000
Wire Wire Line
	7750 5000 8050 5000
Text GLabel 2250 4900 1    50   Input ~ 0
RF_CLK
Text GLabel 2150 4900 1    50   Input ~ 0
RF_MOSI
Text GLabel 2050 4900 1    50   Input ~ 0
RF_MISO
Text GLabel 1950 5400 3    50   Input ~ 0
GND
Text GLabel 2050 5400 3    50   Input ~ 0
NRF_3.3V
Text GLabel 2250 5400 3    50   Input ~ 0
NRF_CSN
Text GLabel 10000 2250 2    50   Input ~ 0
NRF_CSN
Text GLabel 2150 5400 3    50   Input ~ 0
NRF_CE
Text GLabel 10000 2350 2    50   Input ~ 0
NRF_CE
$Comp
L Device:R_US R5
U 1 1 5C116C83
P 2500 3500
F 0 "R5" V 2400 3550 50  0000 R CNN
F 1 "10K(1%)" V 2600 3550 50  0000 R CNN
F 2 "Resistor_SMD:R_0805_2012Metric_Pad1.15x1.40mm_HandSolder" V 2540 3490 50  0001 C CNN
F 3 "~" H 2500 3500 50  0001 C CNN
	1    2500 3500
	1    0    0    -1  
$EndComp
Wire Wire Line
	2500 3700 2500 3650
Wire Wire Line
	1750 3700 2500 3700
$Comp
L Device:R_US R2
U 1 1 5C11DA39
P 1200 3850
F 0 "R2" V 1100 3800 50  0000 R CNN
F 1 "330R" V 1100 4050 50  0000 R CNN
F 2 "Resistor_SMD:R_0805_2012Metric_Pad1.15x1.40mm_HandSolder" V 1240 3840 50  0001 C CNN
F 3 "~" H 1200 3850 50  0001 C CNN
	1    1200 3850
	0    1    1    0   
$EndComp
Wire Wire Line
	850  3900 850  3850
Wire Wire Line
	850  3850 1050 3850
$Comp
L Device:C C1
U 1 1 5C124B42
P 1550 4000
F 0 "C1" V 1700 3950 50  0000 L CNN
F 1 "1nF/50V(10%)" V 1400 3750 50  0000 L CNN
F 2 "Capacitor_SMD:C_0805_2012Metric_Pad1.15x1.40mm_HandSolder" H 1588 3850 50  0001 C CNN
F 3 "http://thegioiic.com/products/tu-1nf-50v-0805" H 1550 4000 50  0001 C CNN
	1    1550 4000
	-1   0    0    1   
$EndComp
Connection ~ 1550 3850
Wire Wire Line
	1550 4150 1650 4150
Wire Wire Line
	1650 4150 1650 3850
Wire Wire Line
	2100 3850 1650 3850
Connection ~ 1650 3850
Wire Wire Line
	1650 3850 1650 3700
NoConn ~ 1650 4050
Text Notes 750  6850 0    79   ~ 16
POWER NRF\n\n
$Comp
L Connector_Generic:Conn_02x04_Counter_Clockwise J9
U 1 1 5C145DDC
P 2050 5200
F 0 "J9" H 2100 5517 50  0000 C CNN
F 1 "Conn_02x04_Counter_Clockwise" H 2100 5426 50  0000 C CNN
F 2 "mysensors_radios:NRF24L01-SMD" H 2050 5200 50  0001 C CNN
F 3 "~" H 2050 5200 50  0001 C CNN
	1    2050 5200
	0    -1   -1   0   
$EndComp
Text GLabel 1950 4900 1    47   Input ~ 0
NRF_INT
NoConn ~ 8150 2700
Text GLabel 10000 2450 2    50   Input ~ 0
NRF_ON
Wire Wire Line
	1950 7100 2000 7100
$Comp
L Device:R_US R3
U 1 1 5C1DCBB1
P 2000 6950
F 0 "R3" H 1900 6700 50  0000 C CNN
F 1 "5K" H 1900 6800 50  0000 C CNN
F 2 "Resistor_SMD:R_0805_2012Metric_Pad1.15x1.40mm_HandSolder" V 2040 6940 50  0001 C CNN
F 3 "~" H 2000 6950 50  0001 C CNN
	1    2000 6950
	-1   0    0    1   
$EndComp
Wire Wire Line
	2000 7600 1650 7600
Wire Wire Line
	1650 7300 1650 7600
Text GLabel 1050 6100 0    50   Input ~ 0
GND
Text GLabel 1150 7100 2    50   Input ~ 0
NRF_ON
Text GLabel 1050 7600 2    50   Input ~ 0
NRF_3.3V
$Comp
L power:+3.3V #PWR01
U 1 1 5C226975
P 700 6700
F 0 "#PWR01" H 700 6550 50  0001 C CNN
F 1 "+3.3V" H 715 6873 50  0000 C CNN
F 2 "" H 700 6700 50  0001 C CNN
F 3 "" H 700 6700 50  0001 C CNN
	1    700  6700
	1    0    0    -1  
$EndComp
$Comp
L Transistor_FET:IRLML6402 Q1
U 1 1 5C22697B
P 800 7100
F 0 "Q1" H 700 7200 50  0000 C CNN
F 1 "SI2301DS" H 650 7300 50  0000 C CNN
F 2 "Package_TO_SOT_SMD:SOT-23" H 1000 7025 50  0001 L CIN
F 3 "https://icdayroi.com/si2301ds,S8050,B772 ,http://thegioiic.com/products/mmbt8550lt1g,https://banlinhkien.vn/goods-6032-mmbt2907-sot23-trans-pnp-0-6a-60v-2f-.html" H 800 7100 50  0001 L CNN
	1    800  7100
	-1   0    0    1   
$EndComp
Wire Wire Line
	1000 7100 1050 7100
$Comp
L Device:R_US R1
U 1 1 5C226984
P 1050 6950
F 0 "R1" V 845 6950 50  0000 C CNN
F 1 "5K" V 936 6950 50  0000 C CNN
F 2 "Resistor_SMD:R_0805_2012Metric_Pad1.15x1.40mm_HandSolder" V 1090 6940 50  0001 C CNN
F 3 "~" H 1050 6950 50  0001 C CNN
	1    1050 6950
	-1   0    0    1   
$EndComp
Wire Wire Line
	1050 7600 700  7600
Wire Wire Line
	700  7300 700  7600
Wire Wire Line
	700  6800 700  6900
Wire Wire Line
	700  6800 1050 6800
Wire Wire Line
	700  6700 700  6800
Connection ~ 700  6800
Wire Wire Line
	1650 6700 1650 6800
Wire Wire Line
	1650 6800 2000 6800
Connection ~ 1650 6800
Wire Wire Line
	1650 6800 1650 6900
$Comp
L Connector:Conn_01x02_Female J12
U 1 1 5C26256F
P 6950 1400
F 0 "J12" V 6797 1448 50  0000 L CNN
F 1 "jum power esp" V 6900 700 50  0000 L CNN
F 2 "Jumper:SolderJumper-2_P1.3mm_Open_TrianglePad1.0x1.5mm" H 6950 1400 50  0001 C CNN
F 3 "x" H 6950 1400 50  0001 C CNN
	1    6950 1400
	0    -1   -1   0   
$EndComp
Wire Wire Line
	7200 1900 7200 1600
Wire Wire Line
	6800 1450 6800 1600
Wire Wire Line
	6950 1600 6800 1600
Connection ~ 6800 1600
Wire Wire Line
	6800 1600 6800 2050
Wire Wire Line
	7050 1600 7200 1600
Wire Wire Line
	7200 1600 8150 1600
Connection ~ 7200 1600
Wire Wire Line
	10600 5550 10600 5400
Text Notes 2500 2700 0    50   ~ 0
PIN 8 VlOGIC keo len 3V
$Comp
L power:+3.3V #PWR06
U 1 1 5C376758
P 2150 2550
F 0 "#PWR06" H 2150 2400 50  0001 C CNN
F 1 "+3.3V" H 2165 2723 50  0000 C CNN
F 2 "" H 2150 2550 50  0001 C CNN
F 3 "" H 2150 2550 50  0001 C CNN
	1    2150 2550
	1    0    0    -1  
$EndComp
Wire Wire Line
	2150 2550 2550 2550
Wire Wire Line
	2550 2550 2550 2450
Text Notes 1950 7550 0    79   ~ 0
OUTPUT
$Comp
L Transistor_FET:IRLML6402 Q3
U 1 1 5C3FE9DF
P 3050 6900
F 0 "Q3" H 2950 7000 50  0000 C CNN
F 1 "SI2301DS" H 2900 7100 50  0000 C CNN
F 2 "Package_TO_SOT_SMD:SOT-23" H 3250 6825 50  0001 L CIN
F 3 "https://icdayroi.com/si2301ds,S8050,B772 ,http://thegioiic.com/products/mmbt8550lt1g,https://banlinhkien.vn/goods-6032-mmbt2907-sot23-trans-pnp-0-6a-60v-2f-.html" H 3050 6900 50  0001 L CNN
	1    3050 6900
	0    1    -1   0   
$EndComp
Wire Wire Line
	2150 7100 2000 7100
Connection ~ 2000 7100
Wire Wire Line
	2850 6800 2700 6800
Connection ~ 2000 6800
Wire Wire Line
	3050 7100 3050 7200
$Comp
L Device:R_US R6
U 1 1 5C469B31
P 2700 6950
F 0 "R6" H 2600 6700 50  0000 C CNN
F 1 "5K" H 2600 6800 50  0000 C CNN
F 2 "Resistor_SMD:R_0805_2012Metric_Pad1.15x1.40mm_HandSolder" V 2740 6940 50  0001 C CNN
F 3 "~" H 2700 6950 50  0001 C CNN
	1    2700 6950
	-1   0    0    1   
$EndComp
Connection ~ 2700 6800
Wire Wire Line
	2700 6800 2000 6800
Wire Wire Line
	2700 7100 2700 7200
Wire Wire Line
	2700 7200 3050 7200
Connection ~ 3050 7200
Wire Wire Line
	3050 7200 3050 7350
$Comp
L ESP32-footprints-Shem-Lib:ESP32-WROOM U3
U 1 1 5B84C563
P 9100 2200
F 0 "U3" H 9075 3587 60  0000 C CNN
F 1 "ESP32-WROOM" H 9075 3481 60  0000 C CNN
F 2 "lib:ESP32-WROOM" H 9450 3550 60  0001 C CNN
F 3 "x" H 8650 2650 60  0001 C CNN
	1    9100 2200
	1    0    0    -1  
$EndComp
$Comp
L Device:Speaker LS1
U 1 1 5C42BAA5
P 3400 7300
F 0 "LS1" H 3570 7296 50  0000 L CNN
F 1 "Speaker" H 3570 7205 50  0000 L CNN
F 2 "lib:speaker" H 3400 7100 50  0001 C CNN
F 3 "https://thegioichip.com.vn/products/buzzer" H 3390 7250 50  0001 C CNN
	1    3400 7300
	-1   0    0    1   
$EndComp
$Comp
L Connector:Conn_01x02_Female J8
U 1 1 5C127945
P 1950 1950
F 0 "J8" V 1797 1998 50  0000 L CNN
F 1 "jump IO2" V 2050 1950 50  0000 L CNN
F 2 "Jumper:SolderJumper-2_P1.3mm_Open_RoundedPad1.0x1.5mm" H 1950 1950 50  0001 C CNN
F 3 "x" H 1950 1950 50  0001 C CNN
	1    1950 1950
	0    1    1    0   
$EndComp
Wire Wire Line
	3650 6800 3650 6850
Wire Wire Line
	3250 6800 3650 6800
Wire Wire Line
	3650 7150 3650 7200
Connection ~ 3650 7200
Wire Wire Line
	3650 7200 3700 7200
Wire Wire Line
	3650 7450 3650 7300
Connection ~ 3650 7300
Wire Wire Line
	3650 7300 3700 7300
Wire Wire Line
	9550 3900 9550 3400
Connection ~ 9550 3400
Text GLabel 3900 3500 2    50   Input ~ 0
IO_0
Wire Wire Line
	3900 3500 3750 3500
Connection ~ 3750 3500
NoConn ~ 8150 2000
Wire Wire Line
	8500 5300 8500 5550
Wire Wire Line
	3600 1150 3500 1150
Connection ~ 3500 1150
Wire Wire Line
	3500 1150 3400 1150
Wire Wire Line
	4200 2150 4250 2150
Wire Wire Line
	4250 2450 4250 2550
Connection ~ 4250 2550
Wire Wire Line
	4250 2550 4600 2550
$Comp
L Connector_Generic:Conn_01x01 J1
U 1 1 5C425F54
P 900 4800
F 0 "J1" H 980 4842 50  0000 L CNN
F 1 "Conn_01x01" H 980 4751 50  0000 L CNN
F 2 "Fiducial:Fiducial_1mm_Dia_2.54mm_Outer_CopperTop" H 900 4800 50  0001 C CNN
F 3 "~" H 900 4800 50  0001 C CNN
	1    900  4800
	1    0    0    -1  
$EndComp
Wire Wire Line
	1100 2200 1350 2200
Wire Wire Line
	1250 2100 1350 2100
Text GLabel 10000 2750 2    50   Input ~ 0
GND
Wire Wire Line
	1150 7100 1050 7100
Connection ~ 1050 7100
$Comp
L Device:Battery_Cell BT1
U 1 1 5C343FDC
P 6250 5950
F 0 "BT1" H 6368 6046 50  0000 L CNN
F 1 "Battery_Cell" H 6368 5955 50  0000 L CNN
F 2 "Connector_Hirose:Hirose_DF13C_CL535-0402-2-51_1x02-1MP_P1.25mm_Vertical" V 6250 6010 50  0001 C CNN
F 3 "~" V 6250 6010 50  0001 C CNN
	1    6250 5950
	1    0    0    -1  
$EndComp
$Comp
L Device:C_Small C8
U 1 1 5C344052
P 5900 5850
F 0 "C8" H 5992 5896 50  0000 L CNN
F 1 "10uF" H 5992 5805 50  0000 L CNN
F 2 "Capacitor_SMD:C_0805_2012Metric" H 5900 5850 50  0001 C CNN
F 3 "~" H 5900 5850 50  0001 C CNN
	1    5900 5850
	1    0    0    -1  
$EndComp
Wire Wire Line
	6800 3100 6800 2950
$Comp
L Device:R_US R10
U 1 1 5C3442C7
P 4100 5800
F 0 "R10" H 4168 5846 50  0000 L CNN
F 1 "1.2K" H 4168 5755 50  0000 L CNN
F 2 "Capacitor_SMD:C_0805_2012Metric" V 4140 5790 50  0001 C CNN
F 3 "~" H 4100 5800 50  0001 C CNN
	1    4100 5800
	1    0    0    -1  
$EndComp
$Comp
L Device:R_US R12
U 1 1 5C344560
P 5750 5500
F 0 "R12" V 5800 5250 50  0000 L CNN
F 1 "1K" H 5700 5700 50  0000 L CNN
F 2 "Capacitor_SMD:C_0805_2012Metric" V 5790 5490 50  0001 C CNN
F 3 "~" H 5750 5500 50  0001 C CNN
	1    5750 5500
	0    1    1    0   
$EndComp
$Comp
L Device:R_US R13
U 1 1 5C3445C0
P 5750 5600
F 0 "R13" V 5818 5646 50  0000 L CNN
F 1 "1K" V 5818 5555 50  0000 L CNN
F 2 "Capacitor_SMD:C_0805_2012Metric" V 5790 5590 50  0001 C CNN
F 3 "~" H 5750 5600 50  0001 C CNN
	1    5750 5600
	0    1    1    0   
$EndComp
$Comp
L Device:C_Small C4
U 1 1 5C3454BA
P 3900 5100
F 0 "C4" H 3992 5146 50  0000 L CNN
F 1 "10uF" H 3992 5055 50  0000 L CNN
F 2 "Capacitor_SMD:C_0805_2012Metric" H 3900 5100 50  0001 C CNN
F 3 "~" H 3900 5100 50  0001 C CNN
	1    3900 5100
	1    0    0    -1  
$EndComp
Wire Wire Line
	8900 5850 8900 5900
Wire Wire Line
	8500 5900 8900 5900
Wire Wire Line
	8900 5900 8900 5950
Connection ~ 8900 5900
Wire Wire Line
	8700 5000 8900 5000
Connection ~ 8900 5000
Wire Wire Line
	10850 4800 10850 5000
Wire Wire Line
	10600 5000 10850 5000
Wire Wire Line
	10850 5000 10850 5400
Connection ~ 10850 5000
Wire Wire Line
	3250 2450 3250 2550
Wire Wire Line
	3250 2550 3500 2550
Connection ~ 3500 2550
$Comp
L Switch:SW_DIP_x01 SW2
U 1 1 5C4F3923
P 6250 5400
F 0 "SW2" V 6204 5530 50  0000 L CNN
F 1 "SW_DIP_x01" V 6295 5530 50  0000 L CNN
F 2 "Connector_JST:JST_EH_S03B-EH_1x03_P2.50mm_Horizontal" H 6250 5400 50  0001 C CNN
F 3 "" H 6250 5400 50  0001 C CNN
	1    6250 5400
	0    1    1    0   
$EndComp
$Comp
L Connector:USB_B_Micro J10
U 1 1 5C4F8D80
P 3300 5050
F 0 "J10" H 3300 5517 50  0000 C CNN
F 1 "USB_B_Micro" H 3300 5426 50  0000 C CNN
F 2 "Connector_USB:USB_Micro-B_Molex-105017-0001" H 3450 5000 50  0001 C CNN
F 3 "~" H 3450 5000 50  0001 C CNN
	1    3300 5050
	1    0    0    -1  
$EndComp
Wire Wire Line
	3700 5300 3700 5250
Wire Wire Line
	3700 5250 3600 5250
$Comp
L power:Earth #PWR014
U 1 1 5C501AA7
P 4350 6000
F 0 "#PWR014" H 4350 5750 50  0001 C CNN
F 1 "Earth" H 4350 5850 50  0001 C CNN
F 2 "" H 4350 6000 50  0001 C CNN
F 3 "~" H 4350 6000 50  0001 C CNN
	1    4350 6000
	1    0    0    -1  
$EndComp
Text GLabel 3950 4850 2    50   Input ~ 0
V_USB
$Comp
L Charge_Phuong-rescue:TP4056-HTV_Create-GoBot_V4-rescue U2
U 1 1 5C503F02
P 5050 5350
F 0 "U2" H 5150 5565 50  0000 C CNN
F 1 "TP4056-HTV_Create-GoBot_V4-rescue" H 5150 4800 50  0000 C CNN
F 2 "Package_SO:SOIJ-8_5.3x5.3mm_P1.27mm" H 5050 5350 50  0001 C CNN
F 3 "" H 5050 5350 50  0001 C CNN
	1    5050 5350
	1    0    0    -1  
$EndComp
Wire Wire Line
	3950 4850 3900 4850
Wire Wire Line
	3900 5000 3900 4850
Connection ~ 3900 4850
Wire Wire Line
	3900 4850 3600 4850
$Comp
L power:Earth #PWR012
U 1 1 5C51E7B2
P 3900 5200
F 0 "#PWR012" H 3900 4950 50  0001 C CNN
F 1 "Earth" H 3900 5050 50  0001 C CNN
F 2 "" H 3900 5200 50  0001 C CNN
F 3 "~" H 3900 5200 50  0001 C CNN
	1    3900 5200
	1    0    0    -1  
$EndComp
Text GLabel 5600 5400 2    50   Input ~ 0
V_USB
Wire Wire Line
	4350 5600 4700 5600
Wire Wire Line
	4700 5500 4100 5500
Wire Wire Line
	4100 5500 4100 5650
Wire Wire Line
	4350 5600 4350 5950
Wire Wire Line
	4100 5950 4350 5950
Connection ~ 4350 5950
Wire Wire Line
	4350 5950 4350 6000
Wire Wire Line
	4700 5400 4000 5400
Wire Wire Line
	4000 5400 4000 5950
Wire Wire Line
	4000 5950 4100 5950
Connection ~ 4100 5950
$Comp
L power:Earth #PWR021
U 1 1 5C550317
P 6250 6100
F 0 "#PWR021" H 6250 5850 50  0001 C CNN
F 1 "Earth" H 6250 5950 50  0001 C CNN
F 2 "" H 6250 6100 50  0001 C CNN
F 3 "~" H 6250 6100 50  0001 C CNN
	1    6250 6100
	1    0    0    -1  
$EndComp
Wire Wire Line
	5600 5700 5900 5700
Wire Wire Line
	6250 5700 6250 5750
Wire Wire Line
	5900 5750 5900 5700
Connection ~ 5900 5700
Wire Wire Line
	5900 5700 6250 5700
Wire Wire Line
	6250 6100 6250 6050
Wire Wire Line
	5900 5950 5900 6050
Wire Wire Line
	5900 6050 6250 6050
Wire Wire Line
	5900 5600 6000 5600
Wire Wire Line
	6000 5600 6000 4600
Text GLabel 4900 4700 0    50   Input ~ 0
V_USB
Connection ~ 6250 5700
$Comp
L power:+BATT #PWR020
U 1 1 5C5DB604
P 6250 4900
F 0 "#PWR020" H 6250 4750 50  0001 C CNN
F 1 "+BATT" H 6265 5073 50  0000 C CNN
F 2 "" H 6250 4900 50  0001 C CNN
F 3 "" H 6250 4900 50  0001 C CNN
	1    6250 4900
	-1   0    0    -1  
$EndComp
Text GLabel 3600 5150 2    50   Input ~ 0
RX0
Text GLabel 3600 5050 2    50   Input ~ 0
TX0
Text GLabel 3700 5300 3    50   Input ~ 0
IO_0
Wire Wire Line
	6250 4900 6250 5000
Connection ~ 7750 5000
Wire Wire Line
	7400 5000 7750 5000
Wire Wire Line
	7400 5100 7400 5000
Wire Wire Line
	7400 5000 6250 5000
Connection ~ 7400 5000
Connection ~ 6250 5000
Wire Wire Line
	6250 5000 6250 5100
$Comp
L power:Earth #PWR0101
U 1 1 5C6400AA
P 3300 5450
F 0 "#PWR0101" H 3300 5200 50  0001 C CNN
F 1 "Earth" H 3300 5300 50  0001 C CNN
F 2 "" H 3300 5450 50  0001 C CNN
F 3 "~" H 3300 5450 50  0001 C CNN
	1    3300 5450
	1    0    0    -1  
$EndComp
Text GLabel 4700 5700 0    50   Input ~ 0
V_USB
Wire Wire Line
	5900 4800 5900 5500
$Comp
L Device:LED_oval-1206 D1
U 1 1 5C3B28E0
P 5300 4700
F 0 "D1" V 5254 4988 50  0000 L CNN
F 1 "LED_Dual_AAC" H 5050 4450 50  0000 L CNN
F 2 "lib:LED_oval-1206" H 5300 4700 50  0001 C CNN
F 3 "~" H 5300 4700 50  0001 C CNN
	1    5300 4700
	1    0    0    -1  
$EndComp
Wire Wire Line
	4900 4700 5000 4700
Wire Wire Line
	5000 4700 5000 4600
Wire Wire Line
	5000 4700 5000 4800
Connection ~ 5000 4700
Wire Wire Line
	5600 4800 5900 4800
Wire Wire Line
	6000 4600 5600 4600
Connection ~ 6250 6050
$Comp
L Connector_Generic:Conn_01x08 J7
U 1 1 5C537E77
P 1550 2400
F 0 "J7" H 1630 2392 50  0000 L CNN
F 1 "Conn_01x08" H 1630 2301 50  0000 L CNN
F 2 "lib:mpu-6050-smd" H 1550 2400 50  0001 C CNN
F 3 "~" H 1550 2400 50  0001 C CNN
	1    1550 2400
	1    0    0    -1  
$EndComp
Wire Wire Line
	5050 6750 5050 7400
NoConn ~ 8750 3250
$EndSCHEMATC
